<?xml version="1.0" encoding="UTF-8" standalone="no"?>
<!-- Created with Inkscape (http://www.inkscape.org/) -->

<svg
   width="210mm"
   height="297mm"
   viewBox="0 0 210 297"
   version="1.1"
   id="svg5"
   inkscape:version="1.1.2 (0a00cf5339, 2022-02-04, custom)"
   sodipodi:docname="enemy.svg"
   xmlns:inkscape="http://www.inkscape.org/namespaces/inkscape"
   xmlns:sodipodi="http://sodipodi.sourceforge.net/DTD/sodipodi-0.dtd"
   xmlns="http://www.w3.org/2000/svg"
   xmlns:svg="http://www.w3.org/2000/svg">
  <sodipodi:namedview
     id="namedview7"
     pagecolor="#ffffff"
     bordercolor="#666666"
     borderopacity="1.0"
     inkscape:pageshadow="2"
     inkscape:pageopacity="0.0"
     inkscape:pagecheckerboard="0"
     inkscape:document-units="mm"
     showgrid="false"
     inkscape:zoom="5.9366442"
     inkscape:cx="280.12459"
     inkscape:cy="561.25984"
     inkscape:window-width="1920"
     inkscape:window-height="1011"
     inkscape:window-x="0"
     inkscape:window-y="32"
     inkscape:window-maximized="1"
     inkscape:current-layer="layer1" />
  <defs
     id="defs2">
    <inkscape:perspective
       sodipodi:type="inkscape:persp3d"
       inkscape:vp_x="0 : 148.5 : 1"
       inkscape:vp_y="0 : 1000 : 0"
       inkscape:vp_z="210 : 148.5 : 1"
       inkscape:persp3d-origin="105 : 99 : 1"
       id="perspective151" />
  </defs>
  <g
     inkscape:label="Layer 1"
     inkscape:groupmode="layer"
     id="layer1">
    <rect
       style="fill:none;stroke-width:0.264583"
       id="rect77"
       width="23.300766"
       height="23.300766"
       x="69.084"
       y="133.05464"
       inkscape:export-filename="/home/mk2/enemy.png"
       inkscape:export-xdpi="32.702789"
       inkscape:export-ydpi="32.702789" />
    <g
       id="g2867"
       transform="translate(0.08146667,0.40633581)">
      <ellipse
         style="fill:#d45500;stroke-width:0.363412"
         id="path798"
         cx="80.652916"
         cy="144.97807"
         rx="11.43216"
         ry="4.9749889" />
      <path
         id="ellipse880"
         style="fill:#d45500;stroke-width:0.289754"
         transform="scale(1,-1)"
         d="m 87.442559,-141.88501 a 6.7896433,5.3252006 0 0 1 -6.789643,5.3252 6.7896433,5.3252006 0 0 1 -6.789643,-5.3252 6.7896433,5.3252006 0 0 1 6.789643,-5.3252 6.7896433,5.3252006 0 0 1 6.789643,5.3252 z" />
      <rect
         style="fill:#d45500;stroke:none;stroke-width:0.230581"
         id="rect1230"
         width="2.4286575"
         height="5.0192976"
         x="122.97697"
         y="129.29152"
         transform="matrix(0.97666172,0.21478335,-0.36389466,0.93144011,0,0)" />
      <rect
         style="fill:#d45500;stroke:none;stroke-width:0.230581"
         id="rect1334"
         width="2.4286575"
         height="5.0192976"
         x="-29.116093"
         y="164.36313"
         transform="matrix(-0.97666172,0.21478335,0.36389466,0.93144011,0,0)" />
      <circle
         style="fill:#e6e6e6;stroke:none;stroke-width:0.0993618"
         id="path1400"
         cx="75.170937"
         cy="145.25963"
         r="0.92990327" />
      <circle
         style="fill:#e6e6e6;stroke:none;stroke-width:0.0993618"
         id="circle1518"
         cx="78.825584"
         cy="145.25963"
         r="0.92990327" />
      <circle
         style="fill:#e6e6e6;stroke:none;stroke-width:0.0993618"
         id="circle1520"
         cx="82.48024"
         cy="145.25963"
         r="0.92990327" />
      <circle
         style="fill:#e6e6e6;stroke:none;stroke-width:0.0993618"
         id="circle1522"
         cx="86.134895"
         cy="145.25963"
         r="0.92990327" />
      <path
         id="ellipse2442"
         style="fill:#ff5555;stroke-width:1.09513"
         d="m 281.97852,534.05273 a 25.661644,20.126742 0 0 0 -0.70899,0.55665 c 1.05592,0.59702 2.25747,1.14856 3.58985,1.64843 5.13776,1.92749 12.18572,3.09961 19.96874,3.09961 7.78303,0 14.82904,-1.17212 19.9668,-3.09961 1.33238,-0.49987 2.53788,-1.05141 3.5957,-1.64843 a 25.661644,20.126742 0 0 0 -0.71093,-0.55665 c -0.9393,0.50958 -2.00049,0.99023 -3.17188,1.42969 -5.00817,1.87888 -11.98054,3.04883 -19.67969,3.04883 -7.69915,0 -14.66565,-1.16995 -19.67382,-3.04883 -1.17172,-0.43958 -2.23458,-0.91995 -3.17578,-1.42969 z"
         transform="scale(0.26458333)" />
      <path
         id="path2638"
         style="fill:#ffffff;stroke-width:1.09513"
         d="m 281.97852,534.05273 a 25.661644,20.126742 0 0 0 -0.70899,0.55665 c 1.05592,0.59702 2.25747,1.14856 3.58985,1.64843 5.13776,1.92749 12.18572,3.09961 19.96874,3.09961 7.78303,0 14.82904,-1.17212 19.9668,-3.09961 1.33238,-0.49987 2.53788,-1.05141 3.5957,-1.64843 a 25.661644,20.126742 0 0 0 -0.71093,-0.55665 c -0.9393,0.50958 -2.00049,0.99023 -3.17188,1.42969 -5.00817,1.87888 -11.98054,3.04883 -19.67969,3.04883 -7.69915,0 -14.66565,-1.16995 -19.67382,-3.04883 -1.17172,-0.43958 -2.23458,-0.91995 -3.17578,-1.42969 z"
         transform="scale(0.26458333)" />
    </g>
  </g>
</svg>
