<?xml version="1.0" encoding="UTF-8" standalone="no"?>
<!-- Created with Inkscape (http://www.inkscape.org/) -->

<svg
   width="210mm"
   height="297mm"
   viewBox="0 0 210 297"
   version="1.1"
   id="svg2941"
   sodipodi:docname="player.svg"
   inkscape:version="1.1.2 (0a00cf5339, 2022-02-04, custom)"
   xmlns:inkscape="http://www.inkscape.org/namespaces/inkscape"
   xmlns:sodipodi="http://sodipodi.sourceforge.net/DTD/sodipodi-0.dtd"
   xmlns="http://www.w3.org/2000/svg"
   xmlns:svg="http://www.w3.org/2000/svg">
  <sodipodi:namedview
     id="namedview2943"
     pagecolor="#ffffff"
     bordercolor="#666666"
     borderopacity="1.0"
     inkscape:pageshadow="2"
     inkscape:pageopacity="0.0"
     inkscape:pagecheckerboard="0"
     inkscape:document-units="mm"
     showgrid="false"
     inkscape:snap-others="false"
     inkscape:snap-to-guides="false"
     inkscape:snap-grids="false"
     inkscape:snap-nodes="false"
     inkscape:snap-global="false"
     inkscape:zoom="23.746577"
     inkscape:cx="301.26448"
     inkscape:cy="598.31782"
     inkscape:window-width="1920"
     inkscape:window-height="1011"
     inkscape:window-x="0"
     inkscape:window-y="32"
     inkscape:window-maximized="1"
     inkscape:current-layer="layer1" />
  <defs
     id="defs2938" />
  <g
     inkscape:label="Layer 1"
     inkscape:groupmode="layer"
     id="layer1">
    <rect
       style="fill:none;stroke:none;stroke-width:0.225827"
       id="rect3629"
       width="4.8138237"
       height="4.8138237"
       x="77.48008"
       y="155.64395"
       inkscape:export-filename="/home/mk2/dev/shooter/player.png"
       inkscape:export-xdpi="105.52947"
       inkscape:export-ydpi="105.52947" />
    <g
       id="g3754">
      <path
         sodipodi:type="star"
         style="fill:#2ca089;stroke:none"
         id="path2967"
         inkscape:flatsided="true"
         sodipodi:sides="3"
         sodipodi:cx="292.64694"
         sodipodi:cy="595.8125"
         sodipodi:r1="5.3347168"
         sodipodi:r2="2.6673584"
         sodipodi:arg1="0"
         sodipodi:arg2="1.0471976"
         inkscape:rounded="0"
         inkscape:randomized="0"
         d="m 297.98166,595.8125 -8.00208,4.62 v -9.24 z"
         transform="matrix(0.19409919,0,0,0.20247887,24.364109,37.43797)"
         inkscape:transform-center-x="-0.25886532"
         inkscape:transform-center-y="-4.3997915e-06" />
      <rect
         style="fill:#2ca089;stroke:none;stroke-width:0.171827"
         id="rect3071"
         width="2.4038377"
         height="1.8786113"
         x="78.2015"
         y="157.13811" />
      <rect
         style="fill:#2ca089;stroke:none;stroke-width:0.0447338"
         id="rect3189"
         width="0.41260618"
         height="0.74181592"
         x="157.30272"
         y="-78.301064"
         transform="rotate(90)" />
      <rect
         style="fill:#2ca089;stroke:none;stroke-width:0.0447338"
         id="rect3273"
         width="0.41260618"
         height="0.74181592"
         x="158.43951"
         y="-78.301064"
         transform="rotate(90)" />
      <path
         sodipodi:type="star"
         style="fill:#2ca089;stroke:none"
         id="path3275"
         inkscape:flatsided="true"
         sodipodi:sides="3"
         sodipodi:cx="292.64694"
         sodipodi:cy="595.8125"
         sodipodi:r1="5.3347168"
         sodipodi:r2="2.6673584"
         sodipodi:arg1="0"
         sodipodi:arg2="1.0471976"
         inkscape:rounded="0"
         inkscape:randomized="0"
         transform="matrix(0.23078742,0.01284537,-0.01800915,0.1791339,22.235213,46.768148)"
         inkscape:transform-center-x="-0.26619114"
         inkscape:transform-center-y="-0.034266183"
         d="m 297.98166,595.8125 -8.00208,4.62 v -9.24 z" />
      <path
         sodipodi:type="star"
         style="fill:#2ca089;stroke:none"
         id="path3277"
         inkscape:flatsided="true"
         sodipodi:sides="3"
         sodipodi:cx="292.64694"
         sodipodi:cy="595.8125"
         sodipodi:r1="5.3347168"
         sodipodi:r2="2.6673584"
         sodipodi:arg1="0"
         sodipodi:arg2="1.0471976"
         inkscape:rounded="0"
         inkscape:randomized="0"
         transform="matrix(0.23078742,-0.01284537,-0.01800915,-0.1791339,22.235213,269.33357)"
         inkscape:transform-center-x="-0.26619114"
         inkscape:transform-center-y="0.034260332"
         d="m 297.98166,595.8125 -8.00208,4.62 v -9.24 z" />
      <circle
         style="fill:#ffffff;stroke:none;stroke-width:0.264583"
         id="path3301"
         cx="79.671158"
         cy="158.09468"
         r="0.41341019" />
    </g>
  </g>
</svg>
